<svg width="19" height="16" viewBox="0 0 19 16" fill="none" xmlns="http://www.w3.org/2000/svg">
<path d="M9.05404 6.26441C10.7537 6.26441 12.1315 4.89503 12.1315 3.20581C12.1315 1.5166 10.7537 0.147217 9.05404 0.147217C7.35439 0.147217 5.97656 1.5166 5.97656 3.20581C5.97656 4.89503 7.35439 6.26441 9.05404 6.26441Z" fill="white" />
<path d="M15.2815 6.26441C16.356 6.26441 17.227 5.39871 17.227 4.33081C17.227 3.26292 16.356 2.39722 15.2815 2.39722C14.207 2.39722 13.3359 3.26292 13.3359 4.33081C13.3359 5.39871 14.207 6.26441 15.2815 6.26441Z" fill="white" />
<path d="M2.82834 6.26441C3.90283 6.26441 4.77387 5.39871 4.77387 4.33081C4.77387 3.26292 3.90283 2.39722 2.82834 2.39722C1.75386 2.39722 0.882812 3.26292 0.882812 4.33081C0.882812 5.39871 1.75386 6.26441 2.82834 6.26441Z" fill="white" />
<path d="M4.74674 8.00073C3.98091 7.37712 3.28734 7.45967 2.40184 7.45967C1.07747 7.45967 0 8.5242 0 9.83237V13.6718C0 14.2399 0.466573 14.7019 1.04033 14.7019C3.51738 14.7019 3.21897 14.7464 3.21897 14.5957C3.21897 11.8751 2.89474 9.87994 4.74674 8.00073Z" fill="white" />
<path d="M9.89647 7.47361C8.34981 7.3454 7.00545 7.47509 5.84588 8.42635C3.90541 9.97111 4.27884 12.0511 4.27884 14.5956C4.27884 15.2688 4.82996 15.8267 5.51762 15.8267C12.9843 15.8267 13.2814 16.0661 13.7242 15.0916C13.8694 14.7621 13.8296 14.8668 13.8296 11.7142C13.8296 9.21012 11.6481 7.47361 9.89647 7.47361Z" fill="white" />
<path d="M15.7082 7.45983C14.8178 7.45983 14.1281 7.37812 13.3633 8.00088C15.2015 9.86613 14.8911 11.7252 14.8911 14.5958C14.8911 14.7475 14.6433 14.702 17.0326 14.702C17.6268 14.702 18.11 14.2235 18.11 13.6354V9.83252C18.11 8.52436 17.0326 7.45983 15.7082 7.45983Z" fill="white" />
</svg>
