<svg xmlns="http://www.w3.org/2000/svg" xmlns:xlink="http://www.w3.org/1999/xlink" width="0" height="0" style="position:absolute">
	
		<symbol id="Autodesk" viewBox="">
			<path d="M10.93 1.265c-.072-.073-.218-.436-.728-.436H5.174s.728.072 1.02.8c0 0 .803 1.896 1.53 3.718 2.114 4.955 5.393 12.825 5.393 12.825h4.882c.074-.074-6.994-16.833-7.068-16.905v-.002zm-6.63.656L.292 11.395c-.218.656-.073 1.458 1.094 1.458h3.132l2.77-6.632c-.875-2.185-1.602-3.935-1.602-3.935-.073-.22-.292-.803-.729-.803s-.583.366-.655.438zm-.074 11.733H.875c-.583 0-.875-.365-.875-.365.583 1.02 2.259 4.227 2.259 4.227.292.365.583.583 1.02.583.947 0 2.405-.947 2.405-.947l5.611-3.498H4.226z"></path>
		</symbol>
	
		<symbol id="Google" viewBox="">
			<path d="M17.28.5H.72a.72.72 0 0 0-.72.72v16.56c0 .398.322.72.72.72h16.56a.72.72 0 0 0 .72-.72V1.22a.72.72 0 0 0-.72-.72zm-4.523 13.176c-.913.841-2.16 1.336-3.647 1.336A5.509 5.509 0 0 1 3.6 9.5a5.513 5.513 0 0 1 5.51-5.515c1.485 0 2.732.547 3.688 1.436l-1.58 1.582c-.571-.547-1.298-.824-2.105-.824-1.436 0-2.651.97-3.085 2.272-.11.331-.173.684-.173 1.049 0 .364.063.718.173 1.049.434 1.302 1.649 2.272 3.082 2.272.743 0 1.373-.196 1.866-.527a2.534 2.534 0 0 0 1.1-1.665H9.11V8.497h5.191c.065.363.099.739.099 1.128 0 1.68-.6 3.091-1.643 4.052z"></path>
		</symbol>
	
		<symbol id="Yandex" viewBox="">
			<path d="M3.19.5A3.183 3.183 0 0 0 0 3.69v11.62a3.183 3.183 0 0 0 3.19 3.19h8.553L18 9.502 11.743.5H3.189zm4.79 3.286h2.031c.125 0 .197.046.197.153v11.2c0 .077-.036.123-.143.123H8.96c-.071 0-.125-.061-.125-.107v-4.147h-.892l-2.478 4.147c-.035.076-.107.107-.213.107H3.986c-.142 0-.232-.107-.142-.245l2.727-4.223c-1.462-.551-2.282-1.668-2.282-3.183 0-2.525 1.694-3.825 3.69-3.825zm-.054.979c-1.088 0-2.158.78-2.158 2.693 0 1.836 1.141 2.57 2.318 2.57h.75V4.766h-.91z"></path>
		</symbol>
	
		<symbol id="arrow" viewBox="">
			<path d="M15.142.858L1 15l14.142 14.142"></path>
		</symbol>
	
		<symbol id="cards" viewBox="">
			<path d="M0 6h5V0H0v6zm0 7h5V7H0v6zm6 0h5V7H6v6zm6 0h5V7h-5v6zM6 6h5V0H6v6zm6-6v6h5V0h-5z"></path>
		</symbol>
	
		<symbol id="company" viewBox="">
			<path d="M9.054 6.264c1.7 0 3.078-1.369 3.078-3.058A3.068 3.068 0 0 0 9.054.147c-1.7 0-3.077 1.37-3.077 3.059a3.068 3.068 0 0 0 3.077 3.058zM15.281 6.264a1.94 1.94 0 0 0 1.946-1.933 1.94 1.94 0 0 0-1.946-1.934 1.94 1.94 0 0 0-1.945 1.934 1.94 1.94 0 0 0 1.945 1.933zM2.828 6.264a1.94 1.94 0 0 0 1.946-1.933 1.94 1.94 0 0 0-1.946-1.934A1.94 1.94 0 0 0 .883 4.331a1.94 1.94 0 0 0 1.945 1.933zM4.747 8c-.766-.623-1.46-.54-2.345-.54C1.077 7.46 0 8.524 0 9.832v3.84c0 .568.467 1.03 1.04 1.03 2.477 0 2.179.044 2.179-.106 0-2.72-.324-4.716 1.528-6.595z"></path><path d="M9.896 7.474c-1.546-.129-2.89.001-4.05.952-1.94 1.545-1.567 3.625-1.567 6.17 0 .673.551 1.23 1.239 1.23 7.466 0 7.763.24 8.206-.734.145-.33.106-.225.106-3.378 0-2.504-2.182-4.24-3.934-4.24zM15.708 7.46c-.89 0-1.58-.082-2.345.54 1.838 1.866 1.528 3.725 1.528 6.596 0 .152-.248.106 2.142.106.594 0 1.077-.479 1.077-1.067V9.833c0-1.309-1.077-2.373-2.402-2.373z"></path>
		</symbol>
	
		<symbol id="current" viewBox="">
			<circle cx="10" cy="10" r="10"></circle><path d="M14.62 6.3l-6.058 6.055-2.276-2.275a.635.635 0 0 0-.897.898L8.113 13.7c.248.247.65.247.898 0l-.177-.177.177.177 6.506-6.504a.634.634 0 1 0-.897-.898z"></path>
		</symbol>
	
		<symbol id="delete" viewBox="">
			<path d="M12.326 3.078l-1.02 11.625H3.828L2.808 3.078l-1.292.114 1.038 11.835c.055.545.528.973 1.078.973h7.87c.55 0 1.023-.428 1.079-.981l1.038-11.827-1.293-.114z"></path><path d="M9.947 0H5.19c-.596 0-1.08.485-1.08 1.081v2.054h1.297V1.297H9.73v1.838h1.297V1.081C11.028.485 10.543 0 9.948 0z"></path><path d="M14.486 2.487H.65a.649.649 0 1 0 0 1.297h13.837a.649.649 0 1 0 0-1.297z"></path>
		</symbol>
	
		<symbol id="icon-value" viewBox="">
			<path d="M46.841 63.431H.249V.251h46.592v63.18z"></path><path d="M14.726 30.13v14.972h27.97M14.726 15.158V30.13M42.696 5.566h-27.97v9.592M3.556 45.102h8.158M7.634 43.708v-8.479M4.486 40.56l3.148 3.148 3.148-3.148M42.286 59.91H4.806v-6.864h37.48v6.864zM35.462 53.045v6.865M27.798 53.045v6.865M20.134 53.045v6.865M7.247 56.478h10.274M3.556 15.158h8.158M7.634 13.764V5.285M4.486 10.616l3.148 3.148 3.148-3.148M14.726 15.158h27.97" fill="none"></path><g><path d="M3.556 29.595h8.158M7.634 28.201v-8.479M4.486 25.053l3.148 3.148 3.148-3.148M14.726 30.13h27.97" fill="none"></path></g>
		</symbol>
	
		<symbol id="list" viewBox="">
			<path d="M0 9h4V5H0v4zm0 5h4v-4H0v4zM0 4h4V0H0v4zm5 5h12V5H5v4zm0 5h12v-4H5v4zM5 0v4h12V0H5z"></path>
		</symbol>
	
		<symbol id="logout" viewBox="">
			<path d="M11.318 9.75a.752.752 0 0 0-.755.75v3c0 .413-.338.75-.754.75H7.545V3c0-.64-.41-1.213-1.028-1.426L6.294 1.5H9.81c.416 0 .754.337.754.75V4.5c0 .414.337.75.755.75a.752.752 0 0 0 .754-.75V2.25A2.26 2.26 0 0 0 9.81 0H1.698c-.03 0-.053.013-.081.017C1.581.014 1.546 0 1.509 0 .677 0 0 .673 0 1.5V15c0 .64.41 1.213 1.028 1.426l4.54 1.504c.154.047.307.07.468.07.832 0 1.51-.673 1.51-1.5v-.75h2.263a2.26 2.26 0 0 0 2.263-2.25v-3a.752.752 0 0 0-.754-.75z" fill-opacity=".6"></path><path d="M17.887 6.97l-3.018-3a.758.758 0 0 0-.822-.163.751.751 0 0 0-.466.693v2.25h-3.018a.753.753 0 0 0-.754.75c0 .414.338.75.754.75h3.018v2.25c0 .303.184.577.466.693a.758.758 0 0 0 .822-.163l3.018-3a.746.746 0 0 0 0-1.06z" fill-opacity=".6"></path>
		</symbol>
	
		<symbol id="models" viewBox="">
			<path d="M9 1.357l2.605 1.504.588-1.018L9 0 5.809 1.843l.587 1.018 2.605-1.504zM1.515 5.678L4.12 4.175l-.588-1.018L.34 5v3.686h1.175V5.678zM1.515 11.314H.34V15l3.192 1.843.588-1.018-2.605-1.503v-3.008zM9 18.643L6.397 17.14l-.587 1.018L9 20l3.192-1.843-.588-1.018-2.604 1.504zM16.484 14.322l-2.605 1.503.587 1.018L17.66 15v-3.686h-1.175v3.008zM14.466 3.157l-.587 1.018 2.605 1.503v3.008h1.174V5l-3.192-1.843z"></path><path d="M15.307 13.642V7.036l-5.721 3.303v6.607l5.721-3.304zM3.277 6.018L9 9.322l5.721-3.304L9 2.715 3.277 6.018zM2.691 13.642l5.722 3.304v-6.607L2.69 7.036v6.606z"></path>
		</symbol>
	
		<symbol id="projects" viewBox="">
			<path d="M10.062 7.333l-.59.585v3.86h1.18v-3.86l-.59-.585zM5.343 9.676l-.59.586v1.515h1.18v-1.515l-.59-.586z"></path><path d="M1.18 3.535v10c0 .97.793 1.758 1.768 1.758h6.525v1.319a1.756 1.756 0 0 0-1.18 1.65c0 .969.794 1.718 1.77 1.718.975 0 1.768-.749 1.768-1.718 0-.763-.494-1.407-1.18-1.65v-1.319h6.525c.976 0 1.769-.788 1.769-1.758v-10H1.18zm5.935 8.828a.587.587 0 0 1-.59.586H4.167a.587.587 0 0 1-.59-.586V10.02c0-.156.062-.305.173-.415l1.18-1.172a.592.592 0 0 1 .833 0l1.179 1.172c.11.11.173.259.173.415v2.343zm4.716 0a.587.587 0 0 1-.59.586H8.883a.587.587 0 0 1-.59-.586V7.676c0-.156.063-.305.173-.414l1.18-1.172a.592.592 0 0 1 .833 0l1.18 1.172c.11.11.172.258.172.414v4.687zm4.716 0a.587.587 0 0 1-.59.586H13.6a.587.587 0 0 1-.59-.586v-5.86c0-.155.062-.304.173-.413l1.179-1.172a.592.592 0 0 1 .834 0l1.179 1.172c.11.11.172.258.172.414v5.86z"></path><path d="M14.777 6.16l-.59.587v5.03h1.18v-5.03l-.59-.586zM18.944.02H1.18C.528.02 0 .544 0 1.19v1.172h20.123V1.191c0-.647-.527-1.171-1.179-1.171z"></path>
		</symbol>
	
		<symbol id="search" viewBox="">
			<path d="M8.82.024C3.955.024 0 3.97 0 8.82c0 4.85 3.956 8.796 8.82 8.796 4.862 0 8.819-3.946 8.819-8.796S13.682.024 8.819.024zm0 16.145c-4.067 0-7.374-3.297-7.374-7.35 0-4.052 3.307-7.35 7.373-7.35 4.066 0 7.374 3.298 7.374 7.35 0 4.053-3.308 7.35-7.374 7.35z"></path><path d="M19.788 18.74l-4.747-4.722a.723.723 0 0 0-1.02 1.025l4.747 4.723a.721.721 0 0 0 1.023-.003.723.723 0 0 0-.003-1.022z"></path>
		</symbol>
	
		<symbol id="services" viewBox="">
			<path d="M1.901.143C.88.143.047.983.047 2.014c0 1.032.831 1.871 1.854 1.871 1.023 0 1.855-.84 1.855-1.87A1.865 1.865 0 0 0 1.901.142zM7.905.143c-1.022 0-1.854.84-1.854 1.871 0 1.032.832 1.871 1.854 1.871 1.023 0 1.855-.84 1.855-1.87A1.865 1.865 0 0 0 7.905.142zM14.007 3.885c1.022 0 1.854-.84 1.854-1.87A1.865 1.865 0 0 0 14.008.142c-1.023 0-1.855.84-1.855 1.871 0 1.032.832 1.871 1.855 1.871zM1.855 9.88c1.023 0 1.855-.839 1.855-1.87a1.865 1.865 0 0 0-1.855-1.872C.832 6.138 0 6.978 0 8.01 0 9.041.832 9.88 1.855 9.88zM7.858 9.88c1.023 0 1.855-.839 1.855-1.87a1.865 1.865 0 0 0-1.855-1.872c-1.022 0-1.854.84-1.854 1.871 0 1.032.832 1.871 1.854 1.871zM13.957 9.88c1.023 0 1.854-.839 1.854-1.87a1.865 1.865 0 0 0-1.854-1.872c-1.023 0-1.855.84-1.855 1.871 0 1.032.832 1.871 1.855 1.871zM1.898 12.115c-1.023 0-1.855.839-1.855 1.87 0 1.032.832 1.872 1.855 1.872 1.023 0 1.854-.84 1.854-1.871a1.865 1.865 0 0 0-1.854-1.871zM7.902 12.115c-1.023 0-1.855.839-1.855 1.87 0 1.032.832 1.872 1.855 1.872 1.022 0 1.854-.84 1.854-1.871a1.865 1.865 0 0 0-1.854-1.871zM14 12.115c-1.023 0-1.855.839-1.855 1.87 0 1.032.832 1.872 1.854 1.872 1.023 0 1.855-.84 1.855-1.871a1.865 1.865 0 0 0-1.855-1.871z"></path>
		</symbol>
	
</svg>
